{
    "fluentMethods": true,
    "relationships": [],
    "fields": [
        {
            "fieldName": "nombre",
            "fieldType": "String"
        },
        {
            "fieldName": "ciudad",
            "fieldType": "String"
        }
    ],
    "changelogDate": "20180216113940",
    "dto": "no",
    "service": "no",
    "entityTableName": "empresa",
    "jpaMetamodelFiltering": false,
    "pagination": "pagination"
}
